{"content":[{"id":62,"name":"3 Corações","pipedriveId":"790","commercial_relationship_type":"trial_finalizado"},{"id":247,"name":"AB Brasil","pipedriveId":"371","commercial_relationship_type":"trial"},{"id":27,"name":"Adere","pipedriveId":"1483","commercial_relationship_type":"cliente"},{"id":123,"name":"ADM do Brasil","pipedriveId":"1396","commercial_relationship_type":"cliente"},{"id":113,"name":"Affinity Petcare","pipedriveId":"981","commercial_relationship_type":"cliente"},{"id":192,"name":"Ajinomoto","pipedriveId":"775","commercial_relationship_type":"trial_finalizado"},{"id":180,"name":"Albaruska","pipedriveId":"1554","commercial_relationship_type":"cliente"},{"id":170,"name":"Alles Alimentos","pipedriveId":"2026","commercial_relationship_type":"cliente"},{"id":133,"name":"Alpi Dailus","pipedriveId":"1983","commercial_relationship_type":"cliente"},{"id":248,"name":"Amicci","pipedriveId":"1802","commercial_relationship_type":"trial"},{"id":29,"name":"Anhembi","pipedriveId":"1401","commercial_relationship_type":"cliente"},{"id":46,"name":"Apolo","pipedriveId":"1742","commercial_relationship_type":"trial_finalizado"},{"id":249,"name":"Apyce Brasil","pipedriveId":"2531","commercial_relationship_type":"cliente"},{"id":95,"name":"Arcor","pipedriveId":"760","commercial_relationship_type":"trial_finalizado"},{"id":44,"name":"Artemis","pipedriveId":"1867","commercial_relationship_type":"parceiro_comercial"},{"id":246,"name":"Asa","pipedriveId":"1456","commercial_relationship_type":"trial"},{"id":202,"name":"Aurora Alimentos","pipedriveId":"776","commercial_relationship_type":"cliente"},{"id":239,"name":"Bain Company","pipedriveId":"1376","commercial_relationship_type":"parceiro_comercial"},{"id":173,"name":"Barbarex","pipedriveId":"1579","commercial_relationship_type":"cliente"},{"id":35,"name":"Barilla","pipedriveId":"805","commercial_relationship_type":"cliente"},{"id":178,"name":"Bariloche Sorvetes","pipedriveId":"8899","commercial_relationship_type":"trial_finalizado"},{"id":211,"name":"Barry Callebaut","pipedriveId":"1784","commercial_relationship_type":"cliente"},{"id":240,"name":"Bayer","pipedriveId":"38","commercial_relationship_type":"cliente"},{"id":198,"name":"Bebidas Fruki","pipedriveId":"2184","commercial_relationship_type":"trial"},{"id":104,"name":"Bebidas Poty","pipedriveId":"1385","commercial_relationship_type":"cliente"},{"id":169,"name":"Bem Brasil","pipedriveId":"1942","commercial_relationship_type":"cliente"},{"id":251,"name":"Bergamota Mamão","pipedriveId":"6767676","commercial_relationship_type":"cliente"},{"id":225,"name":"Biscoitos Porto Alegre","pipedriveId":"2308","commercial_relationship_type":"cliente"},{"id":63,"name":"Blue Alimentos","pipedriveId":"1712","commercial_relationship_type":"cliente_churn"},{"id":122,"name":"Boehringer Ingelheim","pipedriveId":"48","commercial_relationship_type":"cliente"}],"pageable":{"sort":{"sorted":true,"unsorted":false,"empty":false},"offset":0,"pageNumber":0,"pageSize":30,"unpaged":false,"paged":true},"totalPages":8,"totalElements":239,"last":false,"number":0,"sort":{"sorted":true,"unsorted":false,"empty":false},"size":30,"numberOfElements":30,"first":true,"empty":false}