{"content":[{"id":12434,"title":"Absorvente Íntimo Externo","subtitle":"Comportamento Shopper","bqTable":"produto_industria.cat162140000","geography":"SP"},{"id":28709,"title":"Absorvente Íntimo Externo","subtitle":"Comportamento Shopper","bqTable":"produto_industria_ba.cat162140000","geography":"BA"},{"id":23223,"title":"Absorvente Íntimo Externo","subtitle":"Comportamento Shopper","bqTable":"produto_industria_mg.cat162140000","geography":"MG"},{"id":14238,"title":"Absorvente Íntimo Externo","subtitle":"Comportamento Shopper","bqTable":"produto_industria_rj.cat162140000","geography":"RJ"},{"id":14646,"title":"Absorvente Íntimo Externo","subtitle":"Comportamento Shopper","bqTable":"produto_industria_rs.cat162140000","geography":"RS"},{"id":17166,"title":"Absorvente Íntimo Externo","subtitle":"Comportamento Shopper","bqTable":"produto_industria_pr.cat162140000","geography":"PR"},{"id":23222,"title":"Absorvente Íntimo Externo","subtitle":"Comportamento Shopper","bqTable":"produto_industria_ce.cat162140000","geography":"CE"},{"id":18622,"title":"Absorvente Íntimo Externo","subtitle":"Comportamento Shopper","bqTable":"produto_industria_ba.cat162140000","geography":"BA"},{"id":23224,"title":"Absorvente Íntimo Externo","subtitle":"Comportamento Shopper","bqTable":"produto_industria_es.cat162140000","geography":"ES"},{"id":23221,"title":"Absorvente Íntimo Externo","subtitle":"Comportamento Shopper","bqTable":"produto_industria_pe.cat162140000","geography":"PE"},{"id":14645,"title":"Absorvente Íntimo Externo","subtitle":"Gestão de Categorias","bqTable":"produto_industria_rs.cat162140000","geography":"RS"},{"id":18621,"title":"Absorvente Íntimo Externo","subtitle":"Gestão de Categorias","bqTable":"produto_industria_ba.cat162140000","geography":"BA"},{"id":23219,"title":"Absorvente Íntimo Externo","subtitle":"Gestão de Categorias","bqTable":"produto_industria_mg.cat162140000","geography":"MG"},{"id":23220,"title":"Absorvente Íntimo Externo","subtitle":"Gestão de Categorias","bqTable":"produto_industria_es.cat162140000","geography":"ES"},{"id":23218,"title":"Absorvente Íntimo Externo","subtitle":"Gestão de Categorias","bqTable":"produto_industria_ce.cat162140000","geography":"CE"},{"id":17165,"title":"Absorvente Íntimo Externo","subtitle":"Gestão de Categorias","bqTable":"produto_industria_pr.cat162140000","geography":"PR"},{"id":23217,"title":"Absorvente Íntimo Externo","subtitle":"Gestão de Categorias","bqTable":"produto_industria_pe.cat162140000","geography":"PE"},{"id":12433,"title":"Absorvente Íntimo Externo","subtitle":"Gestão de Categorias","bqTable":"produto_industria.cat162140000","geography":"SP"},{"id":14237,"title":"Absorvente Íntimo Externo","subtitle":"Gestão de Categorias","bqTable":"produto_industria_rj.cat162140000","geography":"RJ"},{"id":20716,"title":"Absorvente Íntimo Externo","subtitle":"Market Share","bqTable":"produto_industria_es.cat162140000","geography":"ES"},{"id":1172,"title":"Absorvente Íntimo Externo","subtitle":"Market Share","bqTable":"produto_industria_rs.cat162140000","geography":"RS"},{"id":2192,"title":"Absorvente Íntimo Externo","subtitle":"Market Share","bqTable":"produto_industria_rj.cat162140000","geography":"RJ"},{"id":20715,"title":"Absorvente Íntimo Externo","subtitle":"Market Share","bqTable":"produto_industria_mg.cat162140000","geography":"MG"},{"id":20713,"title":"Absorvente Íntimo Externo","subtitle":"Market Share","bqTable":"produto_industria_pe.cat162140000","geography":"PE"},{"id":1808,"title":"Absorvente Íntimo Externo","subtitle":"Market Share","bqTable":"produto_industria_pr.cat162140000","geography":"PR"},{"id":2576,"title":"Absorvente Íntimo Externo","subtitle":"Market Share","bqTable":"produto_industria_ba.cat162140000","geography":"BA"},{"id":212,"title":"Absorvente Íntimo Externo","subtitle":"Market Share","bqTable":"produto_industria.cat162140000","geography":"SP"},{"id":20714,"title":"Absorvente Íntimo Externo","subtitle":"Market Share","bqTable":"produto_industria_ce.cat162140000","geography":"CE"},{"id":23216,"title":"Absorvente Íntimo Externo","subtitle":"Mercados e Canais","bqTable":"produto_industria_es.cat162140000","geography":"ES"},{"id":12432,"title":"Absorvente Íntimo Externo","subtitle":"Mercados e Canais","bqTable":"produto_industria.cat162140000","geography":"SP"}],"pageable":{"sort":{"sorted":true,"unsorted":false,"empty":false},"offset":0,"pageNumber":0,"pageSize":30,"unpaged":false,"paged":true},"totalPages":643,"totalElements":19264,"last":false,"number":0,"sort":{"sorted":true,"unsorted":false,"empty":false},"size":30,"numberOfElements":30,"first":true,"empty":false}
